CONFIG DB EXAMPLES/ADDER TB WITH CONFIG DB EXAMPLE/LOG_FILE.log
UVM_INFO /home/runner/adder_scoreboard.sv(69) @ 10: uvm_test_top.env_h.scoreboard_h [PASS ] in1=0000  in2=0000 rst=1  out=   00 
UVM_INFO /home/runner/adder_scoreboard.sv(69) @ 20: uvm_test_top.env_h.scoreboard_h [PASS ] in1=0110  in2=1000 rst=0  out=   0e 
UVM_INFO /home/runner/adder_scoreboard.sv(69) @ 30: uvm_test_top.env_h.scoreboard_h [PASS ] in1=0011  in2=0001 rst=0  out=   04 
UVM_INFO /home/runner/adder_scoreboard.sv(69) @ 40: uvm_test_top.env_h.scoreboard_h [PASS ] in1=1101  in2=0011 rst=0  out=   10 
UVM_INFO /home/runner/adder_scoreboard.sv(69) @ 50: uvm_test_top.env_h.scoreboard_h [PASS ] in1=0100  in2=1110 rst=0  out=   12 
UVM_INFO /home/runner/adder_scoreboard.sv(69) @ 60: uvm_test_top.env_h.scoreboard_h [PASS ] in1=1000  in2=0010 rst=0  out=   0a 
UVM_INFO /home/runner/adder_scoreboard.sv(69) @ 70: uvm_test_top.env_h.scoreboard_h [PASS ] in1=1001  in2=1111 rst=0  out=   18 
UVM_INFO /home/runner/adder_scoreboard.sv(69) @ 80: uvm_test_top.env_h.scoreboard_h [PASS ] in1=0111  in2=0101 rst=0  out=   0c 
UVM_INFO /home/runner/adder_scoreboard.sv(69) @ 90: uvm_test_top.env_h.scoreboard_h [PASS ] in1=0010  in2=0100 rst=0  out=   06 
UVM_INFO /home/runner/adder_scoreboard.sv(69) @ 100: uvm_test_top.env_h.scoreboard_h [PASS ] in1=1010  in2=1100 rst=0  out=   16 
UVM_INFO /home/runner/adder_scoreboard.sv(69) @ 110: uvm_test_top.env_h.scoreboard_h [PASS ] in1=1111  in2=1101 rst=0  out=   1c 
UVM_INFO /home/runner/adder_scoreboard.sv(69) @ 120: uvm_test_top.env_h.scoreboard_h [PASS ] in1=0001  in2=0111 rst=0  out=   08 
UVM_INFO /home/runner/adder_scoreboard.sv(69) @ 130: uvm_test_top.env_h.scoreboard_h [PASS ] in1=0000  in2=1010 rst=0  out=   0a 
UVM_INFO /home/runner/adder_scoreboard.sv(69) @ 140: uvm_test_top.env_h.scoreboard_h [PASS ] in1=1100  in2=0110 rst=0  out=   12 
UVM_INFO /home/runner/adder_scoreboard.sv(69) @ 150: uvm_test_top.env_h.scoreboard_h [PASS ] in1=0101  in2=1011 rst=0  out=   10 
UVM_INFO /home/runner/adder_scoreboard.sv(69) @ 160: uvm_test_top.env_h.scoreboard_h [PASS ] in1=1011  in2=1001 rst=0  out=   14 
UVM_INFO /home/runner/adder_scoreboard.sv(69) @ 170: uvm_test_top.env_h.scoreboard_h [PASS ] in1=1110  in2=0000 rst=0  out=   0e 
UVM_INFO /home/runner/adder_scoreboard.sv(69) @ 180: uvm_test_top.env_h.scoreboard_h [PASS ] in1=1110  in2=0000 rst=0  out=   0e 
UVM_INFO /home/runner/adder_scoreboard.sv(69) @ 190: uvm_test_top.env_h.scoreboard_h [PASS ] in1=1011  in2=1001 rst=0  out=   14 
UVM_INFO /home/runner/adder_scoreboard.sv(69) @ 200: uvm_test_top.env_h.scoreboard_h [PASS ] in1=0101  in2=1011 rst=0  out=   10 
UVM_INFO /home/runner/adder_scoreboard.sv(69) @ 210: uvm_test_top.env_h.scoreboard_h [PASS ] in1=1100  in2=0110 rst=0  out=   12 
UVM_INFO /home/runner/adder_scoreboard.sv(69) @ 220: uvm_test_top.env_h.scoreboard_h [PASS ] in1=0000  in2=1010 rst=0  out=   0a 
UVM_INFO /home/runner/adder_scoreboard.sv(69) @ 230: uvm_test_top.env_h.scoreboard_h [PASS ] in1=0001  in2=0111 rst=0  out=   08 
UVM_INFO /home/runner/adder_scoreboard.sv(69) @ 240: uvm_test_top.env_h.scoreboard_h [PASS ] in1=1111  in2=1101 rst=0  out=   1c 
UVM_INFO /home/runner/adder_scoreboard.sv(69) @ 250: uvm_test_top.env_h.scoreboard_h [PASS ] in1=1010  in2=1100 rst=0  out=   16 
UVM_INFO /home/runner/adder_scoreboard.sv(69) @ 260: uvm_test_top.env_h.scoreboard_h [PASS ] in1=0010  in2=0100 rst=0  out=   06 
UVM_INFO /home/runner/adder_scoreboard.sv(69) @ 270: uvm_test_top.env_h.scoreboard_h [PASS ] in1=0111  in2=0101 rst=0  out=   0c 
UVM_INFO /home/runner/adder_scoreboard.sv(69) @ 280: uvm_test_top.env_h.scoreboard_h [PASS ] in1=1001  in2=1111 rst=0  out=   18 
UVM_INFO /home/runner/adder_scoreboard.sv(69) @ 290: uvm_test_top.env_h.scoreboard_h [PASS ] in1=1000  in2=0010 rst=0  out=   0a 
UVM_INFO /home/runner/adder_scoreboard.sv(69) @ 300: uvm_test_top.env_h.scoreboard_h [PASS ] in1=0100  in2=1110 rst=0  out=   12 
UVM_INFO /home/runner/adder_scoreboard.sv(69) @ 310: uvm_test_top.env_h.scoreboard_h [PASS ] in1=1101  in2=0011 rst=0  out=   10 
UVM_INFO /home/runner/adder_scoreboard.sv(69) @ 320: uvm_test_top.env_h.scoreboard_h [PASS ] in1=0011  in2=0001 rst=0  out=   04 
UVM_INFO /home/runner/adder_scoreboard.sv(69) @ 330: uvm_test_top.env_h.scoreboard_h [PASS ] in1=0110  in2=1000 rst=0  out=   0e 
UVM_INFO /home/runner/adder_scoreboard.sv(69) @ 340: uvm_test_top.env_h.scoreboard_h [PASS ] in1=0110  in2=1000 rst=0  out=   0e 
UVM_INFO /home/runner/adder_scoreboard.sv(69) @ 350: uvm_test_top.env_h.scoreboard_h [PASS ] in1=0011  in2=0001 rst=0  out=   04 
UVM_INFO /home/runner/adder_scoreboard.sv(69) @ 360: uvm_test_top.env_h.scoreboard_h [PASS ] in1=1101  in2=0011 rst=0  out=   10 
UVM_INFO /home/runner/adder_scoreboard.sv(69) @ 370: uvm_test_top.env_h.scoreboard_h [PASS ] in1=0100  in2=1110 rst=0  out=   12 
UVM_INFO /home/runner/adder_scoreboard.sv(69) @ 380: uvm_test_top.env_h.scoreboard_h [PASS ] in1=1000  in2=0010 rst=0  out=   0a 
UVM_INFO /home/runner/adder_scoreboard.sv(69) @ 390: uvm_test_top.env_h.scoreboard_h [PASS ] in1=1001  in2=1111 rst=0  out=   18 
UVM_INFO /home/runner/adder_scoreboard.sv(69) @ 400: uvm_test_top.env_h.scoreboard_h [PASS ] in1=0111  in2=0101 rst=0  out=   0c 
UVM_INFO /home/runner/adder_scoreboard.sv(69) @ 410: uvm_test_top.env_h.scoreboard_h [PASS ] in1=0010  in2=0100 rst=0  out=   06 
UVM_INFO /home/runner/adder_scoreboard.sv(69) @ 420: uvm_test_top.env_h.scoreboard_h [PASS ] in1=1010  in2=1100 rst=0  out=   16 
UVM_INFO /home/runner/adder_scoreboard.sv(69) @ 430: uvm_test_top.env_h.scoreboard_h [PASS ] in1=1111  in2=1101 rst=0  out=   1c 
UVM_INFO /home/runner/adder_scoreboard.sv(69) @ 440: uvm_test_top.env_h.scoreboard_h [PASS ] in1=0001  in2=0111 rst=0  out=   08 
UVM_INFO /home/runner/adder_scoreboard.sv(69) @ 450: uvm_test_top.env_h.scoreboard_h [PASS ] in1=0000  in2=1010 rst=0  out=   0a 
UVM_INFO /home/runner/adder_scoreboard.sv(69) @ 460: uvm_test_top.env_h.scoreboard_h [PASS ] in1=1100  in2=0110 rst=0  out=   12 
UVM_INFO /home/runner/adder_scoreboard.sv(69) @ 470: uvm_test_top.env_h.scoreboard_h [PASS ] in1=0101  in2=1011 rst=0  out=   10 
UVM_INFO /home/runner/adder_scoreboard.sv(69) @ 480: uvm_test_top.env_h.scoreboard_h [PASS ] in1=1011  in2=1001 rst=0  out=   14 
UVM_INFO /home/runner/adder_scoreboard.sv(69) @ 490: uvm_test_top.env_h.scoreboard_h [PASS ] in1=1110  in2=0000 rst=0  out=   0e 
UVM_INFO /home/runner/adder_scoreboard.sv(69) @ 500: uvm_test_top.env_h.scoreboard_h [PASS ] in1=1110  in2=0000 rst=0  out=   0e 
UVM_INFO /home/runner/adder_scoreboard.sv(69) @ 510: uvm_test_top.env_h.scoreboard_h [PASS ] in1=1011  in2=1001 rst=0  out=   14 
UVM_INFO /home/runner/adder_scoreboard.sv(69) @ 520: uvm_test_top.env_h.scoreboard_h [PASS ] in1=0101  in2=1011 rst=0  out=   10 
UVM_INFO /home/runner/adder_scoreboard.sv(69) @ 530: uvm_test_top.env_h.scoreboard_h [PASS ] in1=1100  in2=0110 rst=0  out=   12 
UVM_INFO /home/runner/adder_scoreboard.sv(69) @ 540: uvm_test_top.env_h.scoreboard_h [PASS ] in1=0000  in2=1010 rst=0  out=   0a 
UVM_INFO /home/runner/adder_scoreboard.sv(69) @ 550: uvm_test_top.env_h.scoreboard_h [PASS ] in1=0001  in2=0111 rst=0  out=   08 
UVM_INFO /home/runner/adder_scoreboard.sv(69) @ 560: uvm_test_top.env_h.scoreboard_h [PASS ] in1=1111  in2=1101 rst=0  out=   1c 
UVM_INFO /home/runner/adder_scoreboard.sv(69) @ 570: uvm_test_top.env_h.scoreboard_h [PASS ] in1=1010  in2=1100 rst=0  out=   16 
UVM_INFO /home/runner/adder_scoreboard.sv(69) @ 580: uvm_test_top.env_h.scoreboard_h [PASS ] in1=0010  in2=0100 rst=0  out=   06 
UVM_INFO /home/runner/adder_scoreboard.sv(69) @ 590: uvm_test_top.env_h.scoreboard_h [PASS ] in1=0111  in2=0101 rst=0  out=   0c 
UVM_INFO /home/runner/adder_scoreboard.sv(69) @ 600: uvm_test_top.env_h.scoreboard_h [PASS ] in1=1001  in2=1111 rst=0  out=   18 
UVM_INFO /home/runner/adder_scoreboard.sv(69) @ 610: uvm_test_top.env_h.scoreboard_h [PASS ] in1=1000  in2=0010 rst=0  out=   0a 
UVM_INFO /home/runner/adder_scoreboard.sv(69) @ 620: uvm_test_top.env_h.scoreboard_h [PASS ] in1=0100  in2=1110 rst=0  out=   12 
UVM_INFO /home/runner/adder_scoreboard.sv(69) @ 630: uvm_test_top.env_h.scoreboard_h [PASS ] in1=1101  in2=0011 rst=0  out=   10 
UVM_INFO /home/runner/adder_scoreboard.sv(69) @ 640: uvm_test_top.env_h.scoreboard_h [PASS ] in1=0011  in2=0001 rst=0  out=   04 
UVM_INFO /home/runner/adder_scoreboard.sv(69) @ 650: uvm_test_top.env_h.scoreboard_h [PASS ] in1=0110  in2=1000 rst=0  out=   0e 
UVM_INFO /home/runner/adder_scoreboard.sv(69) @ 660: uvm_test_top.env_h.scoreboard_h [PASS ] in1=0110  in2=1000 rst=0  out=   0e 
UVM_INFO /home/runner/adder_scoreboard.sv(69) @ 670: uvm_test_top.env_h.scoreboard_h [PASS ] in1=0011  in2=0001 rst=0  out=   04 
UVM_INFO /home/runner/adder_scoreboard.sv(69) @ 680: uvm_test_top.env_h.scoreboard_h [PASS ] in1=1101  in2=0011 rst=0  out=   10 
UVM_INFO /home/runner/adder_scoreboard.sv(69) @ 690: uvm_test_top.env_h.scoreboard_h [PASS ] in1=0100  in2=1110 rst=0  out=   12 
UVM_INFO /home/runner/adder_scoreboard.sv(69) @ 700: uvm_test_top.env_h.scoreboard_h [PASS ] in1=1000  in2=0010 rst=0  out=   0a 
UVM_INFO /home/runner/adder_scoreboard.sv(69) @ 710: uvm_test_top.env_h.scoreboard_h [PASS ] in1=1001  in2=1111 rst=0  out=   18 
UVM_INFO /home/runner/adder_scoreboard.sv(69) @ 720: uvm_test_top.env_h.scoreboard_h [PASS ] in1=0111  in2=0101 rst=0  out=   0c 
UVM_INFO /home/runner/adder_scoreboard.sv(69) @ 730: uvm_test_top.env_h.scoreboard_h [PASS ] in1=0010  in2=0100 rst=0  out=   06 
UVM_INFO /home/runner/adder_scoreboard.sv(69) @ 740: uvm_test_top.env_h.scoreboard_h [PASS ] in1=1010  in2=1100 rst=0  out=   16 
UVM_INFO /home/runner/adder_scoreboard.sv(69) @ 750: uvm_test_top.env_h.scoreboard_h [PASS ] in1=1111  in2=1101 rst=0  out=   1c 
UVM_INFO /home/runner/adder_scoreboard.sv(69) @ 760: uvm_test_top.env_h.scoreboard_h [PASS ] in1=0001  in2=0111 rst=0  out=   08 
UVM_INFO /home/runner/adder_scoreboard.sv(69) @ 770: uvm_test_top.env_h.scoreboard_h [PASS ] in1=0000  in2=1010 rst=0  out=   0a 
UVM_INFO /home/runner/adder_scoreboard.sv(69) @ 780: uvm_test_top.env_h.scoreboard_h [PASS ] in1=1100  in2=0110 rst=0  out=   12 
UVM_INFO /home/runner/adder_scoreboard.sv(69) @ 790: uvm_test_top.env_h.scoreboard_h [PASS ] in1=0101  in2=1011 rst=0  out=   10 
UVM_INFO /home/runner/adder_scoreboard.sv(69) @ 800: uvm_test_top.env_h.scoreboard_h [PASS ] in1=1011  in2=1001 rst=0  out=   14 
UVM_INFO /home/runner/adder_scoreboard.sv(69) @ 810: uvm_test_top.env_h.scoreboard_h [PASS ] in1=1110  in2=0000 rst=0  out=   0e 
UVM_INFO /home/runner/adder_scoreboard.sv(69) @ 820: uvm_test_top.env_h.scoreboard_h [PASS ] in1=1110  in2=0000 rst=0  out=   0e 
UVM_INFO /home/runner/adder_scoreboard.sv(69) @ 830: uvm_test_top.env_h.scoreboard_h [PASS ] in1=1011  in2=1001 rst=0  out=   14 
UVM_INFO /home/runner/adder_scoreboard.sv(69) @ 840: uvm_test_top.env_h.scoreboard_h [PASS ] in1=0101  in2=1011 rst=0  out=   10 
UVM_INFO /home/runner/adder_scoreboard.sv(69) @ 850: uvm_test_top.env_h.scoreboard_h [PASS ] in1=1100  in2=0110 rst=0  out=   12 
UVM_INFO /home/runner/adder_scoreboard.sv(69) @ 860: uvm_test_top.env_h.scoreboard_h [PASS ] in1=0000  in2=1010 rst=0  out=   0a 
UVM_INFO /home/runner/adder_scoreboard.sv(69) @ 870: uvm_test_top.env_h.scoreboard_h [PASS ] in1=0001  in2=0111 rst=0  out=   08 
UVM_INFO /home/runner/adder_scoreboard.sv(69) @ 880: uvm_test_top.env_h.scoreboard_h [PASS ] in1=1111  in2=1101 rst=0  out=   1c 
UVM_INFO /home/runner/adder_scoreboard.sv(69) @ 890: uvm_test_top.env_h.scoreboard_h [PASS ] in1=1010  in2=1100 rst=0  out=   16 
UVM_INFO /home/runner/adder_scoreboard.sv(69) @ 900: uvm_test_top.env_h.scoreboard_h [PASS ] in1=0010  in2=0100 rst=0  out=   06 
UVM_INFO /home/runner/adder_scoreboard.sv(69) @ 910: uvm_test_top.env_h.scoreboard_h [PASS ] in1=0111  in2=0101 rst=0  out=   0c 
UVM_INFO /home/runner/adder_scoreboard.sv(69) @ 920: uvm_test_top.env_h.scoreboard_h [PASS ] in1=1001  in2=1111 rst=0  out=   18 
UVM_INFO /home/runner/adder_scoreboard.sv(69) @ 930: uvm_test_top.env_h.scoreboard_h [PASS ] in1=1000  in2=0010 rst=0  out=   0a 
UVM_INFO /home/runner/adder_scoreboard.sv(69) @ 940: uvm_test_top.env_h.scoreboard_h [PASS ] in1=0100  in2=1110 rst=0  out=   12 
UVM_INFO /home/runner/adder_scoreboard.sv(69) @ 950: uvm_test_top.env_h.scoreboard_h [PASS ] in1=1101  in2=0011 rst=0  out=   10 
UVM_INFO /home/runner/adder_scoreboard.sv(69) @ 960: uvm_test_top.env_h.scoreboard_h [PASS ] in1=0011  in2=0001 rst=0  out=   04 
UVM_INFO /home/runner/adder_scoreboard.sv(69) @ 970: uvm_test_top.env_h.scoreboard_h [PASS ] in1=0110  in2=1000 rst=0  out=   0e 
UVM_INFO /home/runner/adder_scoreboard.sv(69) @ 980: uvm_test_top.env_h.scoreboard_h [PASS ] in1=0110  in2=1000 rst=0  out=   0e 
UVM_INFO /home/runner/adder_scoreboard.sv(69) @ 990: uvm_test_top.env_h.scoreboard_h [PASS ] in1=0011  in2=0001 rst=0  out=   04 
UVM_INFO /home/runner/adder_scoreboard.sv(69) @ 1000: uvm_test_top.env_h.scoreboard_h [PASS ] in1=1101  in2=0011 rst=0  out=   10 
UVM_INFO /home/runner/adder_scoreboard.sv(69) @ 1010: uvm_test_top.env_h.scoreboard_h [PASS ] in1=0100  in2=1110 rst=0  out=   12 
UVM_INFO /home/runner/adder_scoreboard.sv(69) @ 1020: uvm_test_top.env_h.scoreboard_h [PASS ] in1=1111  in2=1111 rst=0  out=   1e 
UVM_INFO /home/runner/adder_scoreboard.sv(69) @ 1030: uvm_test_top.env_h.scoreboard_h [PASS ] in1=1111  in2=1111 rst=0  out=   1e 
UVM_INFO /home/runner/adder_scoreboard.sv(69) @ 1040: uvm_test_top.env_h.scoreboard_h [PASS ] in1=1111  in2=1111 rst=0  out=   1e 
UVM_INFO /home/runner/adder_scoreboard.sv(69) @ 1050: uvm_test_top.env_h.scoreboard_h [PASS ] in1=1111  in2=1111 rst=0  out=   1e 
UVM_INFO /home/runner/adder_scoreboard.sv(69) @ 1060: uvm_test_top.env_h.scoreboard_h [PASS ] in1=1111  in2=1111 rst=0  out=   1e 
UVM_INFO /home/runner/adder_scoreboard.sv(69) @ 1070: uvm_test_top.env_h.scoreboard_h [PASS ] in1=1111  in2=1111 rst=0  out=   1e 
UVM_INFO /home/runner/adder_scoreboard.sv(69) @ 1080: uvm_test_top.env_h.scoreboard_h [PASS ] in1=1111  in2=1111 rst=0  out=   1e 
UVM_INFO /home/runner/adder_scoreboard.sv(69) @ 1090: uvm_test_top.env_h.scoreboard_h [PASS ] in1=1111  in2=1111 rst=0  out=   1e 
UVM_INFO /home/runner/adder_scoreboard.sv(69) @ 1100: uvm_test_top.env_h.scoreboard_h [PASS ] in1=1111  in2=1111 rst=0  out=   1e 
UVM_INFO /home/runner/adder_scoreboard.sv(69) @ 1110: uvm_test_top.env_h.scoreboard_h [PASS ] in1=1111  in2=1111 rst=0  out=   1e 
UVM_INFO /home/runner/adder_scoreboard.sv(69) @ 1120: uvm_test_top.env_h.scoreboard_h [PASS ] in1=1111  in2=1111 rst=0  out=   1e 
UVM_INFO /home/runner/adder_scoreboard.sv(69) @ 1130: uvm_test_top.env_h.scoreboard_h [PASS ] in1=1111  in2=1111 rst=0  out=   1e 
UVM_INFO /home/runner/adder_scoreboard.sv(69) @ 1140: uvm_test_top.env_h.scoreboard_h [PASS ] in1=1111  in2=1111 rst=0  out=   1e 
UVM_INFO /home/runner/adder_scoreboard.sv(69) @ 1150: uvm_test_top.env_h.scoreboard_h [PASS ] in1=1111  in2=1111 rst=0  out=   1e 
UVM_INFO /home/runner/adder_scoreboard.sv(69) @ 1160: uvm_test_top.env_h.scoreboard_h [PASS ] in1=1111  in2=1111 rst=0  out=   1e 
UVM_INFO /home/runner/adder_scoreboard.sv(69) @ 1170: uvm_test_top.env_h.scoreboard_h [PASS ] in1=1111  in2=1111 rst=0  out=   1e 
UVM_INFO /home/runner/adder_scoreboard.sv(69) @ 1180: uvm_test_top.env_h.scoreboard_h [PASS ] in1=1111  in2=1111 rst=0  out=   1e 
UVM_INFO /home/runner/adder_scoreboard.sv(69) @ 1190: uvm_test_top.env_h.scoreboard_h [PASS ] in1=1111  in2=1111 rst=0  out=   1e 
UVM_INFO /home/runner/adder_scoreboard.sv(69) @ 1200: uvm_test_top.env_h.scoreboard_h [PASS ] in1=1111  in2=1111 rst=0  out=   1e 
UVM_INFO /home/runner/adder_scoreboard.sv(69) @ 1210: uvm_test_top.env_h.scoreboard_h [PASS ] in1=1111  in2=1111 rst=0  out=   1e 
UVM_INFO /home/runner/adder_scoreboard.sv(69) @ 1220: uvm_test_top.env_h.scoreboard_h [PASS ] in1=1111  in2=1111 rst=0  out=   1e 
UVM_INFO /home/runner/adder_scoreboard.sv(69) @ 1230: uvm_test_top.env_h.scoreboard_h [PASS ] in1=1111  in2=1111 rst=0  out=   1e 
UVM_INFO /home/runner/adder_scoreboard.sv(69) @ 1240: uvm_test_top.env_h.scoreboard_h [PASS ] in1=1111  in2=1111 rst=0  out=   1e 
UVM_INFO /home/runner/adder_scoreboard.sv(69) @ 1250: uvm_test_top.env_h.scoreboard_h [PASS ] in1=1111  in2=1111 rst=0  out=   1e 
UVM_INFO /home/runner/adder_scoreboard.sv(69) @ 1260: uvm_test_top.env_h.scoreboard_h [PASS ] in1=1111  in2=1111 rst=0  out=   1e 
UVM_INFO /home/runner/adder_scoreboard.sv(69) @ 1270: uvm_test_top.env_h.scoreboard_h [PASS ] in1=1111  in2=1111 rst=0  out=   1e 
UVM_INFO /home/runner/adder_scoreboard.sv(69) @ 1280: uvm_test_top.env_h.scoreboard_h [PASS ] in1=1111  in2=1111 rst=0  out=   1e 
UVM_INFO /home/runner/adder_scoreboard.sv(69) @ 1290: uvm_test_top.env_h.scoreboard_h [PASS ] in1=1111  in2=1111 rst=0  out=   1e 
UVM_INFO /home/runner/adder_scoreboard.sv(69) @ 1300: uvm_test_top.env_h.scoreboard_h [PASS ] in1=1111  in2=1111 rst=0  out=   1e 
UVM_INFO /home/runner/adder_scoreboard.sv(69) @ 1310: uvm_test_top.env_h.scoreboard_h [PASS ] in1=1111  in2=1111 rst=0  out=   1e 
UVM_INFO /home/runner/adder_scoreboard.sv(69) @ 1320: uvm_test_top.env_h.scoreboard_h [PASS ] in1=0000  in2=0100 rst=0  out=   04 
UVM_INFO /home/runner/adder_scoreboard.sv(69) @ 1330: uvm_test_top.env_h.scoreboard_h [PASS ] in1=0000  in2=0001 rst=0  out=   01 
UVM_INFO /home/runner/adder_scoreboard.sv(69) @ 1340: uvm_test_top.env_h.scoreboard_h [PASS ] in1=0000  in2=1011 rst=0  out=   0b 
UVM_INFO /home/runner/adder_scoreboard.sv(69) @ 1350: uvm_test_top.env_h.scoreboard_h [PASS ] in1=0000  in2=0010 rst=0  out=   02 
UVM_INFO /home/runner/adder_scoreboard.sv(69) @ 1360: uvm_test_top.env_h.scoreboard_h [PASS ] in1=0000  in2=0110 rst=0  out=   06 
UVM_INFO /home/runner/adder_scoreboard.sv(69) @ 1370: uvm_test_top.env_h.scoreboard_h [PASS ] in1=0000  in2=0111 rst=0  out=   07 
UVM_INFO /home/runner/adder_scoreboard.sv(69) @ 1380: uvm_test_top.env_h.scoreboard_h [PASS ] in1=0000  in2=0101 rst=0  out=   05 
UVM_INFO /home/runner/adder_scoreboard.sv(69) @ 1390: uvm_test_top.env_h.scoreboard_h [PASS ] in1=0000  in2=0000 rst=0  out=   00 
UVM_INFO /home/runner/adder_scoreboard.sv(69) @ 1400: uvm_test_top.env_h.scoreboard_h [PASS ] in1=0000  in2=1000 rst=0  out=   08 
UVM_INFO /home/runner/adder_scoreboard.sv(69) @ 1410: uvm_test_top.env_h.scoreboard_h [PASS ] in1=0000  in2=1101 rst=0  out=   0d 
UVM_INFO /home/runner/adder_scoreboard.sv(69) @ 1420: uvm_test_top.env_h.scoreboard_h [PASS ] in1=0000  in2=1111 rst=0  out=   0f 
UVM_INFO /home/runner/adder_scoreboard.sv(69) @ 1430: uvm_test_top.env_h.scoreboard_h [PASS ] in1=0000  in2=1110 rst=0  out=   0e 
UVM_INFO /home/runner/adder_scoreboard.sv(69) @ 1440: uvm_test_top.env_h.scoreboard_h [PASS ] in1=0000  in2=1010 rst=0  out=   0a 
UVM_INFO /home/runner/adder_scoreboard.sv(69) @ 1450: uvm_test_top.env_h.scoreboard_h [PASS ] in1=0000  in2=0011 rst=0  out=   03 
UVM_INFO /home/runner/adder_scoreboard.sv(69) @ 1460: uvm_test_top.env_h.scoreboard_h [PASS ] in1=0000  in2=1001 rst=0  out=   09 
UVM_INFO /home/runner/adder_scoreboard.sv(69) @ 1470: uvm_test_top.env_h.scoreboard_h [PASS ] in1=0000  in2=1100 rst=0  out=   0c 
UVM_INFO /home/runner/adder_scoreboard.sv(69) @ 1480: uvm_test_top.env_h.scoreboard_h [PASS ] in1=0000  in2=1100 rst=0  out=   0c 
UVM_INFO /home/runner/adder_scoreboard.sv(69) @ 1490: uvm_test_top.env_h.scoreboard_h [PASS ] in1=0000  in2=1001 rst=0  out=   09 
UVM_INFO /home/runner/adder_scoreboard.sv(69) @ 1500: uvm_test_top.env_h.scoreboard_h [PASS ] in1=0000  in2=0011 rst=0  out=   03 
UVM_INFO /home/runner/adder_scoreboard.sv(69) @ 1510: uvm_test_top.env_h.scoreboard_h [PASS ] in1=0000  in2=1010 rst=0  out=   0a 
UVM_INFO /home/runner/adder_scoreboard.sv(69) @ 1520: uvm_test_top.env_h.scoreboard_h [PASS ] in1=0000  in2=1110 rst=0  out=   0e 
UVM_INFO /home/runner/adder_scoreboard.sv(69) @ 1530: uvm_test_top.env_h.scoreboard_h [PASS ] in1=0000  in2=1111 rst=0  out=   0f 
UVM_INFO /home/runner/adder_scoreboard.sv(69) @ 1540: uvm_test_top.env_h.scoreboard_h [PASS ] in1=0000  in2=1101 rst=0  out=   0d 
UVM_INFO /home/runner/adder_scoreboard.sv(69) @ 1550: uvm_test_top.env_h.scoreboard_h [PASS ] in1=0000  in2=1000 rst=0  out=   08 
UVM_INFO /home/runner/adder_scoreboard.sv(69) @ 1560: uvm_test_top.env_h.scoreboard_h [PASS ] in1=0000  in2=0000 rst=0  out=   00 
UVM_INFO /home/runner/adder_scoreboard.sv(69) @ 1570: uvm_test_top.env_h.scoreboard_h [PASS ] in1=0000  in2=0101 rst=0  out=   05 
UVM_INFO /home/runner/adder_scoreboard.sv(69) @ 1580: uvm_test_top.env_h.scoreboard_h [PASS ] in1=0000  in2=0111 rst=0  out=   07 
UVM_INFO /home/runner/adder_scoreboard.sv(69) @ 1590: uvm_test_top.env_h.scoreboard_h [PASS ] in1=0000  in2=0110 rst=0  out=   06 
UVM_INFO /home/runner/adder_scoreboard.sv(69) @ 1600: uvm_test_top.env_h.scoreboard_h [PASS ] in1=0000  in2=0010 rst=0  out=   02 
UVM_INFO /home/runner/adder_scoreboard.sv(69) @ 1610: uvm_test_top.env_h.scoreboard_h [PASS ] in1=0000  in2=1011 rst=0  out=   0b 
UVM_INFO /home/runner/adder_scoreboard.sv(69) @ 1620: uvm_test_top.env_h.scoreboard_h [PASS ] in1=1010  in2=0000 rst=0  out=   0a 
UVM_INFO /home/runner/adder_scoreboard.sv(69) @ 1630: uvm_test_top.env_h.scoreboard_h [PASS ] in1=0111  in2=0000 rst=0  out=   07 
UVM_INFO /home/runner/adder_scoreboard.sv(69) @ 1640: uvm_test_top.env_h.scoreboard_h [PASS ] in1=0001  in2=0000 rst=0  out=   01 
UVM_INFO /home/runner/adder_scoreboard.sv(69) @ 1650: uvm_test_top.env_h.scoreboard_h [PASS ] in1=1000  in2=0000 rst=0  out=   08 
UVM_INFO /home/runner/adder_scoreboard.sv(69) @ 1660: uvm_test_top.env_h.scoreboard_h [PASS ] in1=1100  in2=0000 rst=0  out=   0c 
UVM_INFO /home/runner/adder_scoreboard.sv(69) @ 1670: uvm_test_top.env_h.scoreboard_h [PASS ] in1=1101  in2=0000 rst=0  out=   0d 
UVM_INFO /home/runner/adder_scoreboard.sv(69) @ 1680: uvm_test_top.env_h.scoreboard_h [PASS ] in1=1011  in2=0000 rst=0  out=   0b 
UVM_INFO /home/runner/adder_scoreboard.sv(69) @ 1690: uvm_test_top.env_h.scoreboard_h [PASS ] in1=0110  in2=0000 rst=0  out=   06 
UVM_INFO /home/runner/adder_scoreboard.sv(69) @ 1700: uvm_test_top.env_h.scoreboard_h [PASS ] in1=1110  in2=0000 rst=0  out=   0e 
UVM_INFO /home/runner/adder_scoreboard.sv(69) @ 1710: uvm_test_top.env_h.scoreboard_h [PASS ] in1=0011  in2=0000 rst=0  out=   03 
UVM_INFO /home/runner/adder_scoreboard.sv(69) @ 1720: uvm_test_top.env_h.scoreboard_h [PASS ] in1=0101  in2=0000 rst=0  out=   05 
UVM_INFO /home/runner/adder_scoreboard.sv(69) @ 1730: uvm_test_top.env_h.scoreboard_h [PASS ] in1=0100  in2=0000 rst=0  out=   04 
UVM_INFO /home/runner/adder_scoreboard.sv(69) @ 1740: uvm_test_top.env_h.scoreboard_h [PASS ] in1=0000  in2=0000 rst=0  out=   00 
UVM_INFO /home/runner/adder_scoreboard.sv(69) @ 1750: uvm_test_top.env_h.scoreboard_h [PASS ] in1=1001  in2=0000 rst=0  out=   09 
UVM_INFO /home/runner/adder_scoreboard.sv(69) @ 1760: uvm_test_top.env_h.scoreboard_h [PASS ] in1=1111  in2=0000 rst=0  out=   0f 
UVM_INFO /home/runner/adder_scoreboard.sv(69) @ 1770: uvm_test_top.env_h.scoreboard_h [PASS ] in1=0010  in2=0000 rst=0  out=   02 
UVM_INFO /home/runner/adder_scoreboard.sv(69) @ 1780: uvm_test_top.env_h.scoreboard_h [PASS ] in1=0010  in2=0000 rst=0  out=   02 
UVM_INFO /home/runner/adder_scoreboard.sv(69) @ 1790: uvm_test_top.env_h.scoreboard_h [PASS ] in1=1111  in2=0000 rst=0  out=   0f 
UVM_INFO /home/runner/adder_scoreboard.sv(69) @ 1800: uvm_test_top.env_h.scoreboard_h [PASS ] in1=1001  in2=0000 rst=0  out=   09 
UVM_INFO /home/runner/adder_scoreboard.sv(69) @ 1810: uvm_test_top.env_h.scoreboard_h [PASS ] in1=0000  in2=0000 rst=0  out=   00 
UVM_INFO /home/runner/adder_scoreboard.sv(69) @ 1820: uvm_test_top.env_h.scoreboard_h [PASS ] in1=0100  in2=0000 rst=0  out=   04 
UVM_INFO /home/runner/adder_scoreboard.sv(69) @ 1830: uvm_test_top.env_h.scoreboard_h [PASS ] in1=0101  in2=0000 rst=0  out=   05 
UVM_INFO /home/runner/adder_scoreboard.sv(69) @ 1840: uvm_test_top.env_h.scoreboard_h [PASS ] in1=0011  in2=0000 rst=0  out=   03 
